Re-Creating Data Visualizations Seen on the Internet - Part 1 | Kyle Cuilla
…
Loading the data in R is easy thanks to the fredr package which allows you to fetch data from the FRED API.

library(fredr)

In order to connect to the FRED API, you need to first obtain a FRED API key. Once you have a key, replace the “FRED_API_KEY” below with your key number and you will be granted access to the FRED database.

fredr_set_key(FRED_API_KEY)

The Total Nonfarm Payroll series we want to load is called PAYEMS.

In the code below, we just need to specify the series name and include units = "chg" in order to get the month-to-month change:

fredr(series_id = "PAYEMS", units = "chg")

## # A tibble: 977 x 3
##    date       series_id value
##    <date>     <chr>     <dbl>
##  1 1939-01-01 PAYEMS       NA
##  2 1939-02-01 PAYEMS      177
##  3 1939-03-01 PAYEMS      180
##  4 1939-04-01 PAYEMS     -186
##  5 1939-05-01 PAYEMS      205
##  6 1939-06-01 PAYEMS      203
##  7 1939-07-01 PAYEMS      -83
##  8 1939-08-01 PAYEMS      244
##  9 1939-09-01 PAYEMS      368
## 10 1939-10-01 PAYEMS      380
## # ... with 967 more rows
…
